id;nome;cognome;codice_fiscale;note
1;Gabriele;Russo;RSSGRL94R04C351P;"PHP Developer"
2;Patrick;Facco;PTRFCC00R04F748;"Project Manager"
3;Mario;Rossi;MRRSS8554T0315;Cliente
7;Gabriele;Russo;RSSGRL94R04C351P;"PHP Developer"
8;Patrick;Facco;PTRFCC00R04F748;"Project Manager"
9;Mario;Rossi;MRRSS8554T0315;Cliente
10;Gabriele;Russo;RSSGRL94R04C351P;"PHP Developer"
11;Patrick;Facco;PTRFCC00R04F748;"Project Manager"
12;Mario;Rossi;MRRSS8554T0315;Cliente
new_table
id;id_pratiche;data_creazione;stato_pratica;note;id_cliente
1;AB185;"2018-06-03 13:56:59";open;"Lorem Ipsum";1
2;ED147;"2018-06-02 13:57:31";open;"Lorem Ipsum";1
3;EL147;"2018-06-13 13:59:00";open;Prova2;3
4;RF789;"2018-06-03 13:59:56";close;Prova;2
6;AC156;"2018-06-03 14:00:52";close;Lorem;2
7;AB185;"2018-06-03 13:56:59";open;"Lorem Ipsum";1
8;ED147;"2018-06-02 13:57:31";open;"Lorem Ipsum";1
9;EL147;"2018-06-13 13:59:00";open;Prova2;3
10;RF789;"2018-06-03 13:59:56";close;Prova;2
11;AC156;"2018-06-03 14:00:52";close;Lorem;2
12;AB185;"2018-06-03 13:56:59";open;"Lorem Ipsum";1
13;ED147;"2018-06-02 13:57:31";open;"Lorem Ipsum";1
14;EL147;"2018-06-13 13:59:00";open;Prova2;3
15;RF789;"2018-06-03 13:59:56";close;Prova;2
16;AC156;"2018-06-03 14:00:52";close;Lorem;2
new_table
